{
	"passages":[
		{
			"name":"passage",
			"text":"Hello world! The first passage is here! You've visited <<VisitCount()>> times.",
			"links":[
				{
					"target":"passage2",
					"text":"Go to Passage 2"
				}
			]
		},
		{
			"name":"passage2",
			"text":"Goodbye World!",
			"links":[
				{
					"target":"passage",
					"text":"Not ready to go yet."
				},
				{
					"target":"end",
					"text":"Ok, I'm ready to go now."
				}
			]
		},
		{
			"name":"end",
			"text":"..."
		}
	]
}